module gitlab.com/swinkelhofer/http-echo

go 1.14

require (
	github.com/codahale/hdrhistogram v0.0.0-20161010025455-3a0bb77429bd // indirect
	github.com/dgrijalva/jwt-go v3.2.0+incompatible
	github.com/opentracing/opentracing-go v1.1.0
	github.com/pkg/errors v0.9.1 // indirect
	github.com/uber/jaeger-client-go v2.23.1+incompatible
	github.com/uber/jaeger-lib v2.2.0+incompatible // indirect
	go.uber.org/atomic v1.6.0 // indirect
)
